R course book - 7 Exercise 1: Data plotting and transformations
…
Statistics_Kumla_20200408 |>  select(Year, PFOA) |> filter(Year== 2017)

# A tibble: 70 × 2
    Year    PFOA
   <dbl>   <dbl>
 1  2017 21.7   
 2  2017  8.38  
 3  2017  0.219 
 4  2017 53.9   
 5  2017 12.0   
 6  2017  0.218 
 7  2017  0.683 
 8  2017  0.0332
 9  2017  3.54  
10  2017  2.03  
# ℹ 60 more rows
…
