R course book - 8 Project final outcome
…
Warning in results$RF_2nd[i] <- input$Sum_response_factor[input$STD_code == :
number of items to replace is not a multiple of replacement length

Warning in results$RF_1st[i] <- input$Sum_response_factor[input$STD_code == :
number of items to replace is not a multiple of replacement length

Warning in results$RF_2nd[i] <- input$Sum_response_factor[input$STD_code == :
number of items to replace is not a multiple of replacement length

Warning: There was 1 warning in `mutate()`.
ℹ In argument: `Type = results$Type[1]`.
Caused by warning:
! Unknown or uninitialised column: `Type`.

# A tibble: 37 × 33
   Sample  `Replicate Name` `Sample Type` Homologue  `Molecule Formula`
   <chr>   <chr>            <chr>         <chr>      <lgl>             
 1 NIST_R1 NIST_R1          Unknown       C10H19Cl3  NA                
 2 NIST_R1 NIST_R1          Unknown       C10H18Cl4  NA                
 3 NIST_R1 NIST_R1          Unknown       C10H17Cl5  NA                
 4 NIST_R1 NIST_R1          Unknown       C10H16Cl6  NA                
 5 NIST_R1 NIST_R1          Unknown       C10H15Cl7  NA                
 6 NIST_R1 NIST_R1          Unknown       C10H14Cl8  NA                
 7 NIST_R1 NIST_R1          Unknown       C10H13Cl9  NA                
 8 NIST_R1 NIST_R1          Unknown       C10H12Cl10 NA                
 9 NIST_R1 NIST_R1          Unknown       C11H21Cl3  NA                
10 NIST_R1 NIST_R1          Unknown       C11H20Cl4  NA                
# ℹ 27 more rows
# ℹ 28 more variables: `Precursor Mz` <dbl>, Quantitative <lgl>,
#   `Isotope Label Type` <chr>, `Explicit Retention Time` <dbl>,
#   `Explicit Retention Time Window` <dbl>, `Molecule List` <chr>,
#   `Product Adduct` <chr>, `Precursor Adduct` <chr>, Area <dbl>,
#   `Normalized Area` <dbl>, `Normalization Method` <chr>,
#   `Limit Of Detection` <lgl>, `Analyte Concentration` <dbl>, …
…
Warning in results$RF_2nd[i] <- input$Sum_response_factor[input$STD_code == :
number of items to replace is not a multiple of replacement length

Warning in results$RF_1st[i] <- input$Sum_response_factor[input$STD_code == :
number of items to replace is not a multiple of replacement length

Warning in results$RF_2nd[i] <- input$Sum_response_factor[input$STD_code == :
number of items to replace is not a multiple of replacement length

Warning: There was 1 warning in `mutate()`.
ℹ In argument: `Type = results$Type[1]`.
Caused by warning:
! Unknown or uninitialised column: `Type`.

# A tibble: 74 × 33
   Sample  `Replicate Name` `Sample Type` Homologue  `Molecule Formula`
   <chr>   <chr>            <chr>         <chr>      <lgl>             
 1 NIST_R1 NIST_R1          Unknown       C10H19Cl3  NA                
 2 NIST_R1 NIST_R1          Unknown       C10H18Cl4  NA                
 3 NIST_R1 NIST_R1          Unknown       C10H17Cl5  NA                
 4 NIST_R1 NIST_R1          Unknown       C10H16Cl6  NA                
 5 NIST_R1 NIST_R1          Unknown       C10H15Cl7  NA                
 6 NIST_R1 NIST_R1          Unknown       C10H14Cl8  NA                
 7 NIST_R1 NIST_R1          Unknown       C10H13Cl9  NA                
 8 NIST_R1 NIST_R1          Unknown       C10H12Cl10 NA                
 9 NIST_R1 NIST_R1          Unknown       C11H21Cl3  NA                
10 NIST_R1 NIST_R1          Unknown       C11H20Cl4  NA                
# ℹ 64 more rows
# ℹ 28 more variables: `Precursor Mz` <dbl>, Quantitative <lgl>,
#   `Isotope Label Type` <chr>, `Explicit Retention Time` <dbl>,
#   `Explicit Retention Time Window` <dbl>, `Molecule List` <chr>,
#   `Product Adduct` <chr>, `Precursor Adduct` <chr>, Area <dbl>,
#   `Normalized Area` <dbl>, `Normalization Method` <chr>,
#   `Limit Of Detection` <lgl>, `Analyte Concentration` <dbl>, …
…
Warning in results$RF_2nd[i] <- input$Sum_response_factor[input$STD_code == :
number of items to replace is not a multiple of replacement length

Warning in results$RF_1st[i] <- input$Sum_response_factor[input$STD_code == :
number of items to replace is not a multiple of replacement length

Warning in results$RF_2nd[i] <- input$Sum_response_factor[input$STD_code == :
number of items to replace is not a multiple of replacement length

Warning: There was 1 warning in `mutate()`.
ℹ In argument: `Type = results$Type[1]`.
Caused by warning:
! Unknown or uninitialised column: `Type`.

# A tibble: 111 × 33
   Sample  `Replicate Name` `Sample Type` Homologue  `Molecule Formula`
   <chr>   <chr>            <chr>         <chr>      <lgl>             
 1 NIST_R1 NIST_R1          Unknown       C10H19Cl3  NA                
 2 NIST_R1 NIST_R1          Unknown       C10H18Cl4  NA                
 3 NIST_R1 NIST_R1          Unknown       C10H17Cl5  NA                
 4 NIST_R1 NIST_R1          Unknown       C10H16Cl6  NA                
 5 NIST_R1 NIST_R1          Unknown       C10H15Cl7  NA                
 6 NIST_R1 NIST_R1          Unknown       C10H14Cl8  NA                
 7 NIST_R1 NIST_R1          Unknown       C10H13Cl9  NA                
 8 NIST_R1 NIST_R1          Unknown       C10H12Cl10 NA                
 9 NIST_R1 NIST_R1          Unknown       C11H21Cl3  NA                
10 NIST_R1 NIST_R1          Unknown       C11H20Cl4  NA                
# ℹ 101 more rows
# ℹ 28 more variables: `Precursor Mz` <dbl>, Quantitative <lgl>,
#   `Isotope Label Type` <chr>, `Explicit Retention Time` <dbl>,
#   `Explicit Retention Time Window` <dbl>, `Molecule List` <chr>,
#   `Product Adduct` <chr>, `Precursor Adduct` <chr>, Area <dbl>,
#   `Normalized Area` <dbl>, `Normalization Method` <chr>,
#   `Limit Of Detection` <lgl>, `Analyte Concentration` <dbl>, …
# A tibble: 1 × 3
  `Total concentration, ng/µL` Sample  Comment                                  
                         <dbl> <chr>   <chr>                                    
1                         42.3 NIST_R3 The best match: 1 % of  A- SCCPs  and  9…

#########################################VIEW RESULTS############################################

#View Overview
print(all_results_df_SCCPs)

# A tibble: 111 × 33
   Sample  `Replicate Name` `Sample Type` Homologue  `Molecule Formula`
   <chr>   <chr>            <chr>         <chr>      <lgl>             
 1 NIST_R1 NIST_R1          Unknown       C10H19Cl3  NA                
 2 NIST_R1 NIST_R1          Unknown       C10H18Cl4  NA                
 3 NIST_R1 NIST_R1          Unknown       C10H17Cl5  NA                
 4 NIST_R1 NIST_R1          Unknown       C10H16Cl6  NA                
 5 NIST_R1 NIST_R1          Unknown       C10H15Cl7  NA                
 6 NIST_R1 NIST_R1          Unknown       C10H14Cl8  NA                
 7 NIST_R1 NIST_R1          Unknown       C10H13Cl9  NA                
 8 NIST_R1 NIST_R1          Unknown       C10H12Cl10 NA                
 9 NIST_R1 NIST_R1          Unknown       C11H21Cl3  NA                
10 NIST_R1 NIST_R1          Unknown       C11H20Cl4  NA                
# ℹ 101 more rows
# ℹ 28 more variables: `Precursor Mz` <dbl>, Quantitative <lgl>,
#   `Isotope Label Type` <chr>, `Explicit Retention Time` <dbl>,
#   `Explicit Retention Time Window` <dbl>, `Molecule List` <chr>,
#   `Product Adduct` <chr>, `Precursor Adduct` <chr>, Area <dbl>,
#   `Normalized Area` <dbl>, `Normalization Method` <chr>,
#   `Limit Of Detection` <lgl>, `Analyte Concentration` <dbl>, …
…
Warning in results$RF_2nd[i] <- input$Sum_response_factor[input$STD_code == :
number of items to replace is not a multiple of replacement length

Warning in results$RF_1st[i] <- input$Sum_response_factor[input$STD_code == :
number of items to replace is not a multiple of replacement length

Warning in results$RF_2nd[i] <- input$Sum_response_factor[input$STD_code == :
number of items to replace is not a multiple of replacement length

Warning: There was 1 warning in `mutate()`.
ℹ In argument: `Type = results$Type[1]`.
Caused by warning:
! Unknown or uninitialised column: `Type`.

# A tibble: 40 × 33
   Sample  `Replicate Name` `Sample Type` Homologue  `Molecule Formula`
   <chr>   <chr>            <chr>         <chr>      <lgl>             
 1 NIST_R1 NIST_R1          Unknown       C14H27Cl3  NA                
 2 NIST_R1 NIST_R1          Unknown       C14H26Cl4  NA                
 3 NIST_R1 NIST_R1          Unknown       C14H25Cl5  NA                
 4 NIST_R1 NIST_R1          Unknown       C14H24Cl6  NA                
 5 NIST_R1 NIST_R1          Unknown       C14H23Cl7  NA                
 6 NIST_R1 NIST_R1          Unknown       C14H22Cl8  NA                
 7 NIST_R1 NIST_R1          Unknown       C14H21Cl9  NA                
 8 NIST_R1 NIST_R1          Unknown       C14H20Cl10 NA                
 9 NIST_R1 NIST_R1          Unknown       C14H19Cl11 NA                
10 NIST_R1 NIST_R1          Unknown       C14H18Cl12 NA                
# ℹ 30 more rows
# ℹ 28 more variables: `Precursor Mz` <dbl>, Quantitative <lgl>,
#   `Isotope Label Type` <chr>, `Explicit Retention Time` <dbl>,
#   `Explicit Retention Time Window` <dbl>, `Molecule List` <chr>,
#   `Product Adduct` <chr>, `Precursor Adduct` <chr>, Area <dbl>,
#   `Normalized Area` <dbl>, `Normalization Method` <chr>,
#   `Limit Of Detection` <lgl>, `Analyte Concentration` <dbl>, …
…
Warning in results$RF_2nd[i] <- input$Sum_response_factor[input$STD_code == :
number of items to replace is not a multiple of replacement length

Warning in results$RF_1st[i] <- input$Sum_response_factor[input$STD_code == :
number of items to replace is not a multiple of replacement length

Warning in results$RF_2nd[i] <- input$Sum_response_factor[input$STD_code == :
number of items to replace is not a multiple of replacement length

Warning: There was 1 warning in `mutate()`.
ℹ In argument: `Type = results$Type[1]`.
Caused by warning:
! Unknown or uninitialised column: `Type`.

# A tibble: 80 × 33
   Sample  `Replicate Name` `Sample Type` Homologue  `Molecule Formula`
   <chr>   <chr>            <chr>         <chr>      <lgl>             
 1 NIST_R1 NIST_R1          Unknown       C14H27Cl3  NA                
 2 NIST_R1 NIST_R1          Unknown       C14H26Cl4  NA                
 3 NIST_R1 NIST_R1          Unknown       C14H25Cl5  NA                
 4 NIST_R1 NIST_R1          Unknown       C14H24Cl6  NA                
 5 NIST_R1 NIST_R1          Unknown       C14H23Cl7  NA                
 6 NIST_R1 NIST_R1          Unknown       C14H22Cl8  NA                
 7 NIST_R1 NIST_R1          Unknown       C14H21Cl9  NA                
 8 NIST_R1 NIST_R1          Unknown       C14H20Cl10 NA                
 9 NIST_R1 NIST_R1          Unknown       C14H19Cl11 NA                
10 NIST_R1 NIST_R1          Unknown       C14H18Cl12 NA                
# ℹ 70 more rows
# ℹ 28 more variables: `Precursor Mz` <dbl>, Quantitative <lgl>,
#   `Isotope Label Type` <chr>, `Explicit Retention Time` <dbl>,
#   `Explicit Retention Time Window` <dbl>, `Molecule List` <chr>,
#   `Product Adduct` <chr>, `Precursor Adduct` <chr>, Area <dbl>,
#   `Normalized Area` <dbl>, `Normalization Method` <chr>,
#   `Limit Of Detection` <lgl>, `Analyte Concentration` <dbl>, …
…
Warning in results$RF_2nd[i] <- input$Sum_response_factor[input$STD_code == :
number of items to replace is not a multiple of replacement length

Warning in results$RF_1st[i] <- input$Sum_response_factor[input$STD_code == :
number of items to replace is not a multiple of replacement length

Warning in results$RF_2nd[i] <- input$Sum_response_factor[input$STD_code == :
number of items to replace is not a multiple of replacement length

Warning: There was 1 warning in `mutate()`.
ℹ In argument: `Type = results$Type[1]`.
Caused by warning:
! Unknown or uninitialised column: `Type`.

# A tibble: 120 × 33
   Sample  `Replicate Name` `Sample Type` Homologue  `Molecule Formula`
   <chr>   <chr>            <chr>         <chr>      <lgl>             
 1 NIST_R1 NIST_R1          Unknown       C14H27Cl3  NA                
 2 NIST_R1 NIST_R1          Unknown       C14H26Cl4  NA                
 3 NIST_R1 NIST_R1          Unknown       C14H25Cl5  NA                
 4 NIST_R1 NIST_R1          Unknown       C14H24Cl6  NA                
 5 NIST_R1 NIST_R1          Unknown       C14H23Cl7  NA                
 6 NIST_R1 NIST_R1          Unknown       C14H22Cl8  NA                
 7 NIST_R1 NIST_R1          Unknown       C14H21Cl9  NA                
 8 NIST_R1 NIST_R1          Unknown       C14H20Cl10 NA                
 9 NIST_R1 NIST_R1          Unknown       C14H19Cl11 NA                
10 NIST_R1 NIST_R1          Unknown       C14H18Cl12 NA                
# ℹ 110 more rows
# ℹ 28 more variables: `Precursor Mz` <dbl>, Quantitative <lgl>,
#   `Isotope Label Type` <chr>, `Explicit Retention Time` <dbl>,
#   `Explicit Retention Time Window` <dbl>, `Molecule List` <chr>,
#   `Product Adduct` <chr>, `Precursor Adduct` <chr>, Area <dbl>,
#   `Normalized Area` <dbl>, `Normalization Method` <chr>,
#   `Limit Of Detection` <lgl>, `Analyte Concentration` <dbl>, …
# A tibble: 1 × 3
  `Total concentration, ng/µL` Sample  Comment                                  
                         <dbl> <chr>   <chr>                                    
1                         2.34 NIST_R3 The best match: 1 % of  A- MCCPs  and  9…

#########################################VIEW RESULTS############################################

#View Overview
print(all_results_df_MCCPs)

# A tibble: 120 × 33
   Sample  `Replicate Name` `Sample Type` Homologue  `Molecule Formula`
   <chr>   <chr>            <chr>         <chr>      <lgl>             
 1 NIST_R1 NIST_R1          Unknown       C14H27Cl3  NA                
 2 NIST_R1 NIST_R1          Unknown       C14H26Cl4  NA                
 3 NIST_R1 NIST_R1          Unknown       C14H25Cl5  NA                
 4 NIST_R1 NIST_R1          Unknown       C14H24Cl6  NA                
 5 NIST_R1 NIST_R1          Unknown       C14H23Cl7  NA                
 6 NIST_R1 NIST_R1          Unknown       C14H22Cl8  NA                
 7 NIST_R1 NIST_R1          Unknown       C14H21Cl9  NA                
 8 NIST_R1 NIST_R1          Unknown       C14H20Cl10 NA                
 9 NIST_R1 NIST_R1          Unknown       C14H19Cl11 NA                
10 NIST_R1 NIST_R1          Unknown       C14H18Cl12 NA                
# ℹ 110 more rows
# ℹ 28 more variables: `Precursor Mz` <dbl>, Quantitative <lgl>,
#   `Isotope Label Type` <chr>, `Explicit Retention Time` <dbl>,
#   `Explicit Retention Time Window` <dbl>, `Molecule List` <chr>,
#   `Product Adduct` <chr>, `Precursor Adduct` <chr>, Area <dbl>,
#   `Normalized Area` <dbl>, `Normalization Method` <chr>,
#   `Limit Of Detection` <lgl>, `Analyte Concentration` <dbl>, …
…
